Accessing and Using Historical Newspaper Data - 6 Using R and the tidyverse
…
ℹ Use `spec()` to retrieve the full column specification for this data.
ℹ Specify the column types or set `show_col_types = FALSE` to quiet this message.

Select some particularly relevant columns:

title_list %>% 
  select(publication_title, 
         first_date_held, 
         last_date_held, 
         country_of_publication)

# A tibble: 24,927 × 4
   publication_title       first_date_held last_date_held country_of_publication
   <chr>                             <dbl> <chr>          <chr>                 
 1 "Corante, or, Newes fr…            1621 1621           The Netherlands       
 2 "Corante, or, Newes fr…            1621 1621           The Netherlands       
 3 "Corante, or, Newes fr…            1621 1621           The Netherlands       
 4 "Corante, or, Newes fr…            1621 1621           England               
 5 "Courant Newes out of …            1621 1621           The Netherlands       
 6 "A Relation of the lat…            1622 1622           England               
 7 "A Relation of the lat…            1622 1622           England               
 8 "A Relation of the lat…            1622 1622           England               
 9 "A Relation of the lat…            1622 1622           England               
10 "A Relation of the lat…            1622 1622           England               
# ℹ 24,917 more rows

Arrange in order of the latest date of publication, and then by the first date of publication:

title_list %>% 
  select(publication_title, 
         first_date_held, 
         last_date_held, 
         country_of_publication) %>%
  arrange(desc(last_date_held), first_date_held)

# A tibble: 24,927 × 4
   publication_title       first_date_held last_date_held country_of_publication
   <chr>                             <dbl> <chr>          <chr>                 
 1 Shrewsbury chronicle               1773 Continuing     England               
 2 London times|The Times…            1788 Continuing     England               
 3 Observer (London)|Obse…            1791 Continuing     England               
 4 Limerick chronicle                 1800 Continuing     Ireland               
 5 Hampshire chronicle|Th…            1816 Continuing     England               
 6 The Inverness Courier,…            1817 Continuing     Scotland              
 7 Sunday times (London)|…            1822 Continuing     England               
 8 The Impartial Reporter…            1825 Continuing     Northern Ireland      
 9 Impartial reporter and…            1825 Continuing     Northern Ireland      
10 Aberdeen observer                  1829 Continuing     Scotland              
# ℹ 24,917 more rows

Group and count by country of publication:

title_list %>% 
  select(publication_title, 
         first_date_held, 
         last_date_held, 
         country_of_publication) %>%
  arrange(desc(last_date_held)) %>% 
  group_by(country_of_publication) %>%
  tally()

# A tibble: 40 × 2
   country_of_publication               n
   <chr>                            <int>
 1 Bermuda Islands                     24
 2 Cayman Islands                       1
 3 England                          20465
 4 England|Hong Kong                    1
 5 England|India                        2
 6 England|Iran                         2
 7 England|Ireland                     10
 8 England|Ireland|Northern Ireland    10
 9 England|Jamaica                      7
10 England|Malta                        2
# ℹ 30 more rows

Arrange again, this time in descending order of number of titles for each country:

title_list %>% 
  select(publication_title, 
         first_date_held, 
         last_date_held, 
         country_of_publication) %>%
  arrange(desc(last_date_held)) %>% 
  group_by(country_of_publication) %>%
  tally() %>%
  arrange(desc(n))

# A tibble: 40 × 2
   country_of_publication               n
   <chr>                            <int>
 1 England                          20465
 2 Scotland                          1778
 3 Ireland                           1050
 4 Wales                             1019
 5 Northern Ireland                   415
 6 England|Wales                       58
 7 Bermuda Islands                     24
 8 England|Scotland                    13
 9 England|Ireland                     10
10 England|Ireland|Northern Ireland    10
# ℹ 30 more rows
…
